"Order ID","Customer Name","Product Name","Variation details","Order Amount","Customer Email","Phone Number","Order Status"
205,"David Hunt","Team registration","_product_type: ticket-event | _event_id: 208",$240.00,hunt9310@gmail.com,15857471667,Processing
205,"David Hunt","Team registration","_product_type: ticket-event | _field_Team Name: Dave's Team | _event_id: 209",$240.00,hunt9310@gmail.com,15857471667,Processing
